<?xml version="1.0" encoding="UTF-8" standalone="no"?>
<svg
   version="1.1"
   id="svg2"
   sodipodi:docname="axonometric-dark.svg"
   width="5120"
   height="5120"
   viewBox="0 0 5120 5120"
   inkscape:version="1.3 (0e150ed6c4, 2023-07-21)"
   xml:space="preserve"
   inkscape:export-filename="plasma6-plain.svg"
   inkscape:export-xdpi="300"
   inkscape:export-ydpi="300"
   xmlns:inkscape="http://www.inkscape.org/namespaces/inkscape"
   xmlns:sodipodi="http://sodipodi.sourceforge.net/DTD/sodipodi-0.dtd"
   xmlns="http://www.w3.org/2000/svg"
   xmlns:svg="http://www.w3.org/2000/svg"><defs
     id="defs6"><clipPath
       clipPathUnits="userSpaceOnUse"
       id="clipPath29"><rect
         style="opacity:1;fill:#4066a9;fill-opacity:1;stroke-width:200;stroke-linecap:round;stroke-linejoin:round;paint-order:stroke fill markers"
         id="rect30"
         width="3840"
         height="2160"
         x="0"
         y="0" /></clipPath><filter
       inkscape:collect="always"
       style="color-interpolation-filters:sRGB"
       id="filter217"
       x="-1.7660363"
       y="-0.67556726"
       width="4.5320726"
       height="2.3511345"><feGaussianBlur
         inkscape:collect="always"
         stdDeviation="40.427662"
         id="feGaussianBlur217" /></filter></defs><sodipodi:namedview
     id="namedview4"
     pagecolor="#ffffff"
     bordercolor="#000000"
     borderopacity="0.25"
     inkscape:showpageshadow="2"
     inkscape:pageopacity="1"
     inkscape:pagecheckerboard="0"
     inkscape:deskcolor="#5d5d5d"
     showgrid="false"
     guidecolor="#1ba0ff"
     guideopacity="0.6"
     guidehicolor="#ff1b71"
     guidehiopacity="0.49803922"
     inkscape:zoom="0.047560939"
     inkscape:cx="2491.5404"
     inkscape:cy="1618.9756"
     inkscape:window-width="1890"
     inkscape:window-height="1993"
     inkscape:window-x="3010"
     inkscape:window-y="220"
     inkscape:window-maximized="0"
     inkscape:current-layer="layer1"
     showguides="false"><inkscape:grid
       type="axonomgrid"
       id="grid1"
       units="mm"
       originx="0"
       originy="0"
       spacingx="0"
       spacingy="3.7795276"
       empcolor="#0099e5"
       empopacity="0.30196078"
       color="#0099e5"
       opacity="0.14901961"
       empspacing="5"
       dotted="false"
       gridanglex="30"
       gridanglez="30"
       visible="false" /><inkscape:page
       x="0"
       y="0"
       width="5120"
       height="5120"
       id="page217"
       margin="0"
       bleed="0"
       inkscape:export-filename="plasma6-light-4k.png"
       inkscape:export-xdpi="96"
       inkscape:export-ydpi="96" /><sodipodi:guide
       position="11662.221,5120"
       orientation="0,-1"
       id="guide6"
       inkscape:locked="false" /><sodipodi:guide
       position="11662.221,0"
       orientation="1,0"
       id="guide7"
       inkscape:locked="false" /><sodipodi:guide
       position="10272.027,0.0001"
       orientation="0,-1"
       id="guide8"
       inkscape:locked="false" /><sodipodi:guide
       position="-6542.2227,3782.8131"
       orientation="1,0"
       id="guide9"
       inkscape:locked="false" /><sodipodi:guide
       position="0,4000"
       orientation="1,0"
       id="guide10"
       inkscape:locked="false" /><sodipodi:guide
       position="5120,4000"
       orientation="1,0"
       id="guide11"
       inkscape:locked="false" /><sodipodi:guide
       position="5120,4000"
       orientation="0,-1"
       id="guide12"
       inkscape:locked="false" /><sodipodi:guide
       position="5120,1120"
       orientation="0,-1"
       id="guide13"
       inkscape:locked="false" /></sodipodi:namedview><g
     inkscape:groupmode="layer"
     id="layer2"
     inkscape:label="art"
     style="display:inline" /><g
     inkscape:groupmode="layer"
     id="layer1"
     inkscape:label="glow"
     style="display:inline"><rect
       style="opacity:1;fill:#000000;stroke-width:0.457768;stroke-linecap:round;stroke-linejoin:round;paint-order:stroke fill markers"
       id="rect7"
       width="5774.3965"
       height="3608.9978"
       x="-327.19821"
       y="755.5011"
       inkscape:export-filename="./16_10.png"
       inkscape:export-xdpi="96"
       inkscape:export-ydpi="96" /><rect
       style="opacity:0.5;fill:#000000;stroke-width:1.88561;stroke-linecap:round;stroke-linejoin:round;paint-order:stroke fill markers"
       id="rect6"
       width="18204.443"
       height="5120"
       x="-6542.2222"
       y="0" /><rect
       style="opacity:0.5;fill:#000000;stroke-linecap:round;stroke-linejoin:round;paint-order:stroke fill markers"
       id="rect3"
       width="5120"
       height="5120"
       x="0"
       y="0" /><rect
       style="opacity:0.5;fill:#000000;stroke-width:0.75;stroke-linecap:round;stroke-linejoin:round;paint-order:stroke fill markers"
       id="rect4"
       width="5120"
       height="2880"
       x="0"
       y="1120" /><rect
       style="display:inline;fill:#ffffff;stroke:none;stroke-width:1.53273;stroke-linecap:round;stroke-linejoin:round;paint-order:stroke fill markers"
       id="rect2"
       width="18204.445"
       height="5120"
       x="-6542.2227"
       y="-9.9999997e-05"
       rx="0"
       ry="0" /><rect
       style="display:inline;fill:#0e0e27;fill-opacity:1;stroke-width:670.415;stroke-linecap:round;stroke-linejoin:round;paint-order:stroke fill markers"
       id="rect1"
       width="18202.912"
       height="5120"
       x="-6540.6895"
       y="-9.9999997e-05" /><path
       id="rect182"
       style="display:inline;fill:#261130;fill-opacity:1;stroke-width:355.557;stroke-linecap:round;stroke-linejoin:round;paint-order:stroke fill markers"
       d="M -785.5602,-1.0342633e-4 H 357.5568 11662.222 V 5120 H 8082.5399 Z"
       sodipodi:nodetypes="cccccc" /><path
       id="path55"
       style="display:inline;fill:#230f2c;fill-opacity:1;stroke-width:355.557;stroke-linecap:round;stroke-linejoin:round;paint-order:stroke fill markers"
       d="M -0.00120313,125.9842 8649.8884,5120 H 8082.5399 L -0.00120313,453.54318 Z"
       sodipodi:nodetypes="ccccc" /><path
       id="path4"
       style="display:inline;fill:#55c6d2;fill-opacity:1;stroke:#1e1d2b;stroke-width:1.33334;stroke-linecap:round;stroke-linejoin:round;stroke-dasharray:none;stroke-opacity:0.98;paint-order:stroke fill markers"
       d="m 3949.6205,2406.2993 v -327.5591 l -283.6741,163.7794 v 327.5592 z"
       sodipodi:nodetypes="ccccc" /><path
       id="path6"
       style="display:inline;fill:#55c6d2;fill-opacity:1;stroke:#1e1d2b;stroke-width:1.33334;stroke-linecap:round;stroke-linejoin:round;stroke-dasharray:none;stroke-opacity:0.98;paint-order:stroke fill markers"
       d="M -193.2862,14.390821 V -313.16825 l -283.674,163.77947 v 327.55907 z"
       sodipodi:nodetypes="ccccc" /><path
       id="path5"
       style="display:inline;fill:#55c6d2;fill-opacity:1;stroke:#1e1d2b;stroke-width:1.33334;stroke-linecap:round;stroke-linejoin:round;stroke-dasharray:none;stroke-opacity:0.98;paint-order:stroke fill markers"
       d="m -785.5602,-327.5591 4783.1875,2761.5748 v 327.5592 L -785.5602,-6.2447785e-5 Z"
       sodipodi:nodetypes="ccccc" /><path
       id="path19"
       style="display:inline;fill:#88e8f3;fill-opacity:1;stroke:#1e1d2b;stroke-width:1.33334;stroke-linecap:round;stroke-linejoin:round;stroke-dasharray:none;stroke-opacity:0.98;paint-order:stroke fill markers"
       d="M -501.8862,-491.33868 4281.3022,2270.2362 3997.6273,2434.0157 -785.5602,-327.55917 Z"
       sodipodi:nodetypes="ccccc" /><path
       id="path20"
       style="display:inline;fill:#7cf2ff;fill-opacity:1;stroke:#1e1d2b;stroke-width:1.33334;stroke-linecap:round;stroke-linejoin:round;stroke-dasharray:none;stroke-opacity:0.98;paint-order:stroke fill markers"
       d="m 4281.3022,2597.7953 v -327.5591 l -283.6749,163.7795 v 327.5592 z"
       sodipodi:nodetypes="ccccc" /><path
       id="path25"
       style="display:inline;fill:#aedf7b;fill-opacity:1;stroke:#1e1d2b;stroke-width:1.33334;stroke-linecap:round;stroke-linejoin:round;stroke-dasharray:none;stroke-opacity:0.98;paint-order:stroke fill markers"
       d="m 4516.97,2733.8585 v -327.559 l -283.6748,163.7793 v 327.559 z"
       sodipodi:nodetypes="ccccc" /><path
       id="path23"
       style="display:inline;fill:#affa60;fill-opacity:1;stroke:#1e1d2b;stroke-width:1.33334;stroke-linecap:round;stroke-linejoin:round;stroke-dasharray:none;stroke-opacity:0.98;paint-order:stroke fill markers"
       d="m 4726.4527,2854.8034 v -327.5591 l -283.6748,163.7794 v 327.5591 z"
       sodipodi:nodetypes="ccccc" /><path
       id="path24"
       style="display:inline;fill:#96d555;fill-opacity:1;stroke:#1e1d2b;stroke-width:1.33334;stroke-linecap:round;stroke-linejoin:round;stroke-dasharray:none;stroke-opacity:0.98;paint-order:stroke fill markers"
       d="m 4233.2952,2570.0788 209.4827,120.9449 v 327.5591 l -209.4827,-120.945 z"
       sodipodi:nodetypes="ccccc" /><path
       id="path22"
       style="display:inline;fill:#aedf7b;stroke:#1e1d2b;stroke-width:1.33334;stroke-linecap:round;stroke-linejoin:round;stroke-dasharray:none;stroke-opacity:0.98;paint-order:stroke fill markers"
       d="m 4516.97,2406.2992 209.4827,120.9451 -283.6748,163.7794 -209.4827,-120.9449 z"
       sodipodi:nodetypes="ccccc" /><path
       id="path28"
       style="display:inline;fill:#f0ef53;fill-opacity:1;stroke:#1e1d2b;stroke-width:1.33334;stroke-linecap:round;stroke-linejoin:round;stroke-dasharray:none;stroke-opacity:0.98;paint-order:stroke fill markers"
       d="m 4833.865,2916.8175 v -327.5589 l -283.6748,163.7793 v 327.559 z"
       sodipodi:nodetypes="ccccc" /><path
       id="path26"
       style="display:inline;fill:#fffe44;fill-opacity:1;stroke:#1e1d2b;stroke-width:1.33334;stroke-linecap:round;stroke-linejoin:round;stroke-dasharray:none;stroke-opacity:0.98;paint-order:stroke fill markers"
       d="m 4907.1185,2959.1105 v -327.5591 l -283.6747,163.7794 v 327.5591 z"
       sodipodi:nodetypes="ccccc" /><path
       id="path27"
       style="display:inline;fill:#dcdb13;fill-opacity:1;stroke:#1e1d2b;stroke-width:1.33334;stroke-linecap:round;stroke-linejoin:round;stroke-dasharray:none;stroke-opacity:0.98;paint-order:stroke fill markers"
       d="m 4550.1902,2753.0379 73.2536,42.2929 v 327.5591 l -73.2536,-42.293 z"
       sodipodi:nodetypes="ccccc" /><path
       id="path29"
       style="display:inline;fill:#f0ef53;stroke:#1e1d2b;stroke-width:1.33334;stroke-linecap:round;stroke-linejoin:round;stroke-dasharray:none;stroke-opacity:0.98;paint-order:stroke fill markers"
       d="m 4833.865,2589.2586 73.2535,42.2928 -283.6747,163.7794 -73.2536,-42.2929 z"
       sodipodi:nodetypes="ccccc" /><path
       id="path1"
       style="display:inline;fill:#f6a94e;fill-opacity:1;stroke:#1e1d2b;stroke-width:1.33334;stroke-linecap:round;stroke-linejoin:round;stroke-dasharray:none;stroke-opacity:0.98;paint-order:stroke fill markers"
       d="m 1041.4758,2213.8955 v -251.9688 l -218.211,125.9842 v 251.9687 z"
       sodipodi:nodetypes="ccccc" /><path
       id="path3"
       style="display:inline;fill:#fbaad3;fill-opacity:1;stroke:#1e1d2b;stroke-width:1.33334;stroke-linecap:round;stroke-linejoin:round;stroke-dasharray:none;stroke-opacity:0.98;paint-order:stroke fill markers"
       d="M -108.9872,844.16315 V 592.19463 l -218.211,125.98421 v 251.9685 z"
       sodipodi:nodetypes="ccccc" /><path
       id="path2"
       style="display:inline;fill:#fb8dc3;fill-opacity:1;stroke:#1e1d2b;stroke-width:1.33334;stroke-linecap:round;stroke-linejoin:round;stroke-dasharray:none;stroke-opacity:0.98;paint-order:stroke fill markers"
       d="M -2007.5432,-251.96862 1505.6561,1776.3777 v 251.9685 L -2007.5432,-1.0342633e-4 Z"
       sodipodi:nodetypes="ccccc" /><path
       id="path7"
       style="display:inline;fill:#fbaad3;fill-opacity:1;stroke:#1e1d2b;stroke-width:1.33334;stroke-linecap:round;stroke-linejoin:round;stroke-dasharray:none;stroke-opacity:0.98;paint-order:stroke fill markers"
       d="M -1789.3312,-377.95287 1723.8672,1650.3936 1505.6561,1776.3777 -2007.5432,-251.96861 Z"
       sodipodi:nodetypes="ccccc" /><path
       id="path9"
       style="display:inline;fill:#f5a9ff;fill-opacity:1;stroke:#1e1d2b;stroke-width:1.33334;stroke-linecap:round;stroke-linejoin:round;stroke-dasharray:none;stroke-opacity:0.98;paint-order:stroke fill markers"
       d="m 2574.8908,2393.7008 v -251.9687 l -218.2111,125.9841 v 251.9687 z"
       sodipodi:nodetypes="ccccc" /><path
       id="path11"
       style="display:inline;fill:#b773c0;fill-opacity:1;stroke:#1e1d2b;stroke-width:1.33334;stroke-linecap:round;stroke-linejoin:round;stroke-dasharray:none;stroke-opacity:0.98;paint-order:stroke fill markers"
       d="M 1942.0784,2028.3465 V 1776.378 l -218.2109,125.9842 v 251.9685 z"
       sodipodi:nodetypes="ccccc" /><path
       id="path10"
       style="display:inline;fill:#b773c0;fill-opacity:1;stroke:#1e1d2b;stroke-width:1.33334;stroke-linecap:round;stroke-linejoin:round;stroke-dasharray:none;stroke-opacity:0.98;paint-order:stroke fill markers"
       d="m 1723.8675,1902.3622 632.8122,365.354 -1e-4,251.9687 -632.8121,-365.3541 z"
       sodipodi:nodetypes="ccccc" /><path
       id="path12"
       style="display:inline;fill:#c996d1;fill-opacity:1;stroke:#1e1d2b;stroke-width:1.33334;stroke-linecap:round;stroke-linejoin:round;stroke-dasharray:none;stroke-opacity:0.98;paint-order:stroke fill markers"
       d="m 1942.0784,1776.378 632.8124,365.3542 -218.2111,125.984 -632.8122,-365.354 z"
       sodipodi:nodetypes="ccccc" /><path
       id="path13"
       style="display:inline;fill:#ff9999;fill-opacity:1;stroke:#1e1d2b;stroke-width:1.33334;stroke-linecap:round;stroke-linejoin:round;stroke-dasharray:none;stroke-opacity:0.98;paint-order:stroke fill markers"
       d="m 3665.9464,3023.6222 v -251.9686 l -218.2111,125.9841 v 251.9687 z"
       sodipodi:nodetypes="ccccc" /><path
       id="path199"
       style="display:inline;fill:#f87875;fill-opacity:1;stroke:#1e1d2b;stroke-width:1.33334;stroke-linecap:round;stroke-linejoin:round;stroke-dasharray:none;stroke-opacity:0.98;paint-order:stroke fill markers"
       d="m 3273.1659,2796.8504 v -251.9687 l -218.2112,125.9842 v 251.9684 z"
       sodipodi:nodetypes="ccccc" /><path
       id="path15"
       style="display:inline;fill:#f87875;fill-opacity:1;stroke:#1e1d2b;stroke-width:1.33334;stroke-linecap:round;stroke-linejoin:round;stroke-dasharray:none;stroke-opacity:0.98;paint-order:stroke fill markers"
       d="m 2819.2872,2534.8032 v -251.9685 l -218.2109,125.9842 v 251.9685 z"
       sodipodi:nodetypes="ccccc" /><path
       id="path14"
       style="display:inline;fill:#e36c68;fill-opacity:1;stroke:#1e1d2b;stroke-width:1.33334;stroke-linecap:round;stroke-linejoin:round;stroke-dasharray:none;stroke-opacity:0.98;paint-order:stroke fill markers"
       d="m 2601.0763,2408.8189 846.659,488.8188 -10e-5,251.9687 -846.6589,-488.8189 z"
       sodipodi:nodetypes="ccccc" /><path
       id="path16"
       style="display:inline;fill:#f18784;fill-opacity:1;stroke:#1e1d2b;stroke-width:1.33334;stroke-linecap:round;stroke-linejoin:round;stroke-dasharray:none;stroke-opacity:0.98;paint-order:stroke fill markers"
       d="m 2819.2872,2282.8347 846.6592,488.8191 -218.2111,125.9839 -846.659,-488.8188 z"
       sodipodi:nodetypes="ccccc" /><path
       id="path17"
       style="display:inline;fill:#6aacf4;fill-opacity:1;stroke:#1e1d2b;stroke-width:1.33334;stroke-linecap:round;stroke-linejoin:round;stroke-dasharray:none;stroke-opacity:0.98;paint-order:stroke fill markers"
       d="m 4647.897,3590.5515 v -251.9688 l -218.2117,125.9842 v 251.9686 z"
       sodipodi:nodetypes="ccccc" /><path
       id="path30"
       style="display:inline;fill:#6299d7;fill-opacity:1;stroke:#1e1d2b;stroke-width:1.33334;stroke-linecap:round;stroke-linejoin:round;stroke-dasharray:none;stroke-opacity:0.98;paint-order:stroke fill markers"
       d="m 3905.9792,3162.2049 v -251.9685 l -218.2118,125.9843 v 251.9683 z"
       sodipodi:nodetypes="ccccc" /><path
       id="path18"
       style="display:inline;fill:#4f8cd2;fill-opacity:1;stroke:#1e1d2b;stroke-width:1.33334;stroke-linecap:round;stroke-linejoin:round;stroke-dasharray:none;stroke-opacity:0.98;paint-order:stroke fill markers"
       d="m 3687.7674,3036.2207 741.9179,428.3462 v 251.9686 l -741.9179,-428.3464 z"
       sodipodi:nodetypes="ccccc" /><path
       id="path31"
       style="display:inline;fill:#70a1db;fill-opacity:1;stroke:#1e1d2b;stroke-width:1.33334;stroke-linecap:round;stroke-linejoin:round;stroke-dasharray:none;stroke-opacity:0.98;paint-order:stroke fill markers"
       d="m 3905.9792,2910.2364 741.9178,428.3464 -218.2117,125.9841 -741.9179,-428.3462 z"
       sodipodi:nodetypes="ccccc" /><path
       id="path32"
       style="display:inline;fill:#92eb92;fill-opacity:1;stroke:#1e1d2b;stroke-width:1.33334;stroke-linecap:round;stroke-linejoin:round;stroke-dasharray:none;stroke-opacity:0.98;paint-order:stroke fill markers"
       d="m 1112.8768,2255.1183 v -251.9688 l -218.212,125.9842 v 251.9687 z"
       sodipodi:nodetypes="ccccc" /><path
       id="path34"
       style="display:inline;fill:#f68c4e;fill-opacity:1;stroke:#1e1d2b;stroke-width:1.33334;stroke-linecap:round;stroke-linejoin:round;stroke-dasharray:none;stroke-opacity:0.98;paint-order:stroke fill markers"
       d="m -3011.3142,-125.98424 v -251.96853 l -218.21,125.98427 V -1.0342633e-4 Z"
       sodipodi:nodetypes="ccccc" /><path
       id="path33"
       style="display:inline;fill:#f68c4e;fill-opacity:1;stroke:#1e1d2b;stroke-width:1.33334;stroke-linecap:round;stroke-linejoin:round;stroke-dasharray:none;stroke-opacity:0.98;paint-order:stroke fill markers"
       d="M -3229.5252,-251.96863 823.2648,2087.911 v 251.9686 L -3229.5252,-1.0342633e-4 Z"
       sodipodi:nodetypes="ccccc" /><path
       id="path35"
       style="display:inline;fill:#f69d4e;fill-opacity:1;stroke:#1e1d2b;stroke-width:1.33334;stroke-linecap:round;stroke-linejoin:round;stroke-dasharray:none;stroke-opacity:0.98;paint-order:stroke fill markers"
       d="m -3011.3142,-377.9529 4052.79,2339.8796 -218.211,125.9843 -4052.79,-2339.87963 z"
       sodipodi:nodetypes="ccccc" /><path
       id="path36"
       style="display:inline;fill:#d5b66b;fill-opacity:1;stroke:#1e1d2b;stroke-width:1.33334;stroke-linecap:round;stroke-linejoin:round;stroke-dasharray:none;stroke-opacity:0.98;paint-order:stroke fill markers"
       d="m 1331.0871,2381.1025 v -251.9687 l -218.2103,125.9842 v 251.9687 z"
       sodipodi:nodetypes="ccccc" /><path
       id="path37"
       style="display:inline;fill:#6ce36c;fill-opacity:1;stroke:#1e1d2b;stroke-width:1.33334;stroke-linecap:round;stroke-linejoin:round;stroke-dasharray:none;stroke-opacity:0.98;paint-order:stroke fill markers"
       d="m 894.6648,2129.1337 218.212,125.9843 v 251.9687 l -218.212,-125.9845 z"
       sodipodi:nodetypes="ccccc" /><path
       id="path38"
       style="display:inline;fill:#ffbde3;fill-opacity:1;stroke:#1e1d2b;stroke-width:1.33334;stroke-linecap:round;stroke-linejoin:round;stroke-dasharray:none;stroke-opacity:0.98;paint-order:stroke fill markers"
       d="m 1723.8672,1902.362 v -251.9684 l -218.2111,125.9841 v 251.9686 z"
       sodipodi:nodetypes="ccccc" /><path
       style="display:inline;opacity:1;fill:#0c0c22;fill-opacity:1;stroke-width:266.666;stroke-linecap:round;stroke-linejoin:round;paint-order:stroke fill markers"
       d="m 894.6658,2381.1025 218.211,125.9842 L -3412.8202,5120 h -436.419 z"
       id="path77"
       sodipodi:nodetypes="ccccc" /><path
       style="display:inline;opacity:1;fill:#0c0c22;fill-opacity:1;stroke-width:266.666;stroke-linecap:round;stroke-linejoin:round;paint-order:stroke fill markers"
       d="M -3229.5252,-1.0342633e-4 823.2648,2339.8796 -3992.0542,5120 h -2550.168 V 1912.5828 Z"
       id="path76"
       sodipodi:nodetypes="cccccc" /><path
       style="display:inline;opacity:1;fill:#0c0c22;fill-opacity:1;stroke-width:266.666;stroke-linecap:round;stroke-linejoin:round;paint-order:stroke fill markers"
       d="M 1112.8768,2507.0867 1331.0871,2633.0713 -2976.3932,5120 h -436.427 z"
       id="path78"
       sodipodi:nodetypes="ccccc" /><path
       id="path79"
       style="display:inline;opacity:1;fill:#0c0c22;fill-opacity:1;stroke-width:193.779;stroke-linecap:round;stroke-linejoin:round;paint-order:stroke fill markers"
       d="m -2636.7902,5120 h 481.723 L 1745.6886,2872.4411 1505.6564,2733.8585 Z"
       sodipodi:nodetypes="ccccc" /><path
       id="path80"
       style="display:inline;opacity:1;fill:#0c0c22;fill-opacity:1;stroke-width:193.779;stroke-linecap:round;stroke-linejoin:round;paint-order:stroke fill markers"
       d="m -1885.3412,5120 h 226.938 l 3648.488,-2106.4565 -113.4697,-65.5118 z"
       sodipodi:nodetypes="ccccc" /><path
       id="path193"
       style="display:inline;opacity:1;fill:#0c0c22;fill-opacity:1;stroke-width:193.779;stroke-linecap:round;stroke-linejoin:round;paint-order:stroke fill markers"
       d="M -2356.6802,-1.0342633e-4 1041.4758,1961.9267 l 0.667,82.7652 70.733,-41.5425 218.2113,125.9844 174.569,-100.7875 L -2007.5432,-1.0342633e-4 Z"
       sodipodi:nodetypes="cccccccc" /><path
       id="path195"
       style="display:inline;opacity:0.0363985;fill:#000000;fill-opacity:1;stroke-width:193.779;stroke-linecap:round;stroke-linejoin:round;paint-order:stroke fill markers"
       d="m 1549.2984,2255.1183 0.6666,202.252 173.9025,-101.4645 240.0319,138.5827 0.6669,157.4801 130.2598,-81.8897 87.6062,50.5792 174.5691,-100.7872 -633.1339,-365.5401 z"
       sodipodi:nodetypes="cccccccccc" /><path
       id="path197"
       style="display:inline;opacity:1;fill:#0c0c22;fill-opacity:1;stroke-width:193.779;stroke-linecap:round;stroke-linejoin:round;paint-order:stroke fill markers"
       d="M -1658.4032,5120 H -0.00120313 34.363797 L 3447.7352,3149.6064 2601.0763,2660.7875 Z"
       sodipodi:nodetypes="cccccc" /><path
       id="path201"
       style="display:inline;opacity:1;fill:#0c0c22;fill-opacity:1;stroke-width:193.779;stroke-linecap:round;stroke-linejoin:round;paint-order:stroke fill markers"
       d="M 515.2088,5119.8641 1998.9514,5120 4429.6853,3716.5355 3687.7674,3288.1891 Z"
       sodipodi:nodetypes="ccccc" /><path
       id="path207"
       style="display:inline;opacity:1;fill:#0c0c22;fill-opacity:1;stroke-width:266.666;stroke-linecap:round;stroke-linejoin:round;paint-order:stroke fill markers"
       d="m 4055.539,2996.5853 209.4828,120.9449 177.7561,-98.9474 -209.4827,-120.945 z"
       sodipodi:nodetypes="ccccc" /><path
       id="path208"
       style="display:inline;opacity:1;fill:#0c0c22;fill-opacity:1;stroke-width:266.666;stroke-linecap:round;stroke-linejoin:round;paint-order:stroke fill markers"
       d="m 4372.434,3179.5444 73.2535,42.2929 177.7563,-98.9474 -73.2536,-42.293 z"
       sodipodi:nodetypes="ccccc" /><path
       id="path39"
       style="display:inline;fill:#92eb92;fill-opacity:1;stroke:#1e1d2b;stroke-width:1.33334;stroke-linecap:round;stroke-linejoin:round;stroke-dasharray:none;stroke-opacity:0.98;paint-order:stroke fill markers"
       d="m 1112.8768,2003.1494 218.2103,125.9847 -218.2103,125.984 -218.212,-125.9844 z"
       sodipodi:nodetypes="ccccc" /><path
       id="path40"
       style="display:inline;fill:#92eb92;fill-opacity:1;stroke:#1e1d2b;stroke-width:1.33334;stroke-linecap:round;stroke-linejoin:round;stroke-dasharray:none;stroke-opacity:0.98;paint-order:stroke fill markers"
       d="M 1331.0871,2381.1026 V 2129.134 l -218.2103,125.9841 v 251.9687 z"
       sodipodi:nodetypes="ccccc" /><path
       id="path41"
       style="display:inline;fill:#eee353;fill-opacity:1;stroke:#1e1d2b;stroke-width:1.33334;stroke-linecap:round;stroke-linejoin:round;stroke-dasharray:none;stroke-opacity:0.98;paint-order:stroke fill markers"
       d="m 1549.2983,2507.0872 v -251.9687 l -218.2112,125.9841 v 251.9687 z"
       sodipodi:nodetypes="ccccc" /><path
       id="path42"
       style="display:inline;fill:#dcd136;fill-opacity:1;stroke:#1e1d2b;stroke-width:1.33334;stroke-linecap:round;stroke-linejoin:round;stroke-dasharray:none;stroke-opacity:0.98;paint-order:stroke fill markers"
       d="m 1112.8768,2255.1184 218.2103,125.9842 v 251.9687 l -218.2103,-125.9844 z"
       sodipodi:nodetypes="ccccc" /><path
       id="path43"
       style="display:inline;fill:#e3da5e;fill-opacity:1;stroke:#1e1d2b;stroke-width:1.33334;stroke-linecap:round;stroke-linejoin:round;stroke-dasharray:none;stroke-opacity:0.98;paint-order:stroke fill markers"
       d="m 1331.0871,2129.1341 218.2112,125.9847 -218.2112,125.984 -218.2103,-125.9844 z"
       sodipodi:nodetypes="ccccc" /><path
       id="path44"
       style="display:inline;fill:#f36e6b;fill-opacity:1;stroke:#1e1d2b;stroke-width:1.33334;stroke-linecap:round;stroke-linejoin:round;stroke-dasharray:none;stroke-opacity:0.98;paint-order:stroke fill markers"
       d="m 1723.8675,2607.8742 v -251.9686 l -218.2111,125.9841 v 251.9687 z"
       sodipodi:nodetypes="ccccc" /><path
       id="path45"
       style="display:inline;fill:#ff9d9d;fill-opacity:1;stroke:#1e1d2b;stroke-width:1.33334;stroke-linecap:round;stroke-linejoin:round;stroke-dasharray:none;stroke-opacity:0.98;paint-order:stroke fill markers"
       d="m 1963.8996,2746.4568 v -251.9685 l -218.211,125.984 v 251.9688 z"
       sodipodi:nodetypes="ccccc" /><path
       id="path46"
       style="display:inline;fill:#ee6c68;fill-opacity:1;stroke:#1e1d2b;stroke-width:1.33334;stroke-linecap:round;stroke-linejoin:round;stroke-dasharray:none;stroke-opacity:0.98;paint-order:stroke fill markers"
       d="m 1505.6564,2481.89 240.0323,138.5823 -10e-5,251.9688 -240.0322,-138.5826 z"
       sodipodi:nodetypes="ccccc" /><path
       id="path47"
       style="display:inline;fill:#f18784;fill-opacity:1;stroke:#1e1d2b;stroke-width:1.33334;stroke-linecap:round;stroke-linejoin:round;stroke-dasharray:none;stroke-opacity:0.98;paint-order:stroke fill markers"
       d="m 1723.8675,2355.9058 240.0321,138.5827 -218.211,125.984 -240.0322,-138.5825 z"
       sodipodi:nodetypes="ccccc" /><path
       id="path48"
       style="display:inline;fill:#c4c4c4;fill-opacity:1;stroke:#1e1d2b;stroke-width:1.33334;stroke-linecap:round;stroke-linejoin:round;stroke-dasharray:none;stroke-opacity:0.98;paint-order:stroke fill markers"
       d="m 2094.8262,2822.0474 v -251.9686 l -218.2111,125.9842 v 251.9685 z"
       sodipodi:nodetypes="ccccc" /><path
       id="path49"
       style="display:inline;fill:#dfdfdf;fill-opacity:1;stroke:#1e1d2b;stroke-width:1.33334;stroke-linecap:round;stroke-linejoin:round;stroke-dasharray:none;stroke-opacity:0.98;paint-order:stroke fill markers"
       d="m 2208.296,2887.5592 v -251.9684 l -218.2112,125.9842 v 251.9685 z"
       sodipodi:nodetypes="ccccc" /><path
       id="path50"
       style="display:inline;fill:#c4c4c4;fill-opacity:1;stroke:#1e1d2b;stroke-width:1.33334;stroke-linecap:round;stroke-linejoin:round;stroke-dasharray:none;stroke-opacity:0.98;paint-order:stroke fill markers"
       d="m 1876.6151,2696.0632 113.4699,65.5118 -2e-4,251.9685 -113.4697,-65.5118 z"
       sodipodi:nodetypes="ccccc" /><path
       id="path51"
       style="display:inline;fill:#e1e1e1;fill-opacity:1;stroke:#1e1d2b;stroke-width:1.33334;stroke-linecap:round;stroke-linejoin:round;stroke-dasharray:none;stroke-opacity:0.98;paint-order:stroke fill markers"
       d="m 2094.8262,2570.0789 113.4698,65.5122 -218.2112,125.984 -113.4697,-65.5119 z"
       sodipodi:nodetypes="ccccc" /><path
       id="path64"
       style="display:inline;opacity:1;fill:#0c0c22;fill-opacity:1;stroke-width:266.666;stroke-linecap:round;stroke-linejoin:round;paint-order:stroke fill markers"
       d="M -1134.6982,-1.0342633e-4 1723.8675,1650.3936 l -3e-4,251.9684 218.2112,-125.984 632.8124,365.3541 0.579,251.0229 26.481,15.289 217.3364,-125.2093 846.6589,488.8191 3e-4,177.1808 331.6809,-187.2597 L -785.5602,-1.0342633e-4 Z"
       sodipodi:nodetypes="ccccccccccccc" /><path
       id="path4-0"
       style="display:inline;opacity:0.3;fill:#c3b096;fill-opacity:0;stroke:#1e1d2b;stroke-width:1.33334;stroke-linecap:round;stroke-linejoin:round;stroke-dasharray:none;stroke-opacity:0.994;paint-order:stroke fill markers"
       d="m 3949.6205,2406.2993 v -327.5591 l -283.6744,163.7794 v 327.5592 z"
       sodipodi:nodetypes="ccccc" /><path
       id="path6-6"
       style="display:inline;opacity:0.3;fill:#c3b096;fill-opacity:0;stroke:#1e1d2b;stroke-width:1.33334;stroke-linecap:round;stroke-linejoin:round;stroke-dasharray:none;stroke-opacity:0.994;paint-order:stroke fill markers"
       d="m -501.8852,-163.77958 v -327.55906 l -283.675,163.77947 V -1.0342633e-4 Z"
       sodipodi:nodetypes="ccccc" /><path
       id="path5-1"
       style="display:inline;opacity:0.355832;fill:#c3b096;fill-opacity:0;stroke:#1e1d2b;stroke-width:1.33334;stroke-linecap:round;stroke-linejoin:round;stroke-dasharray:none;stroke-opacity:0.994;paint-order:stroke fill markers"
       d="M -785.5602,-327.55917 3997.6273,2434.0157 v 327.5592 L -785.5602,-1.0342633e-4 Z"
       sodipodi:nodetypes="ccccc" /><path
       id="path19-5"
       style="display:inline;opacity:0.355832;fill:#c3b096;fill-opacity:0;stroke:#1e1d2b;stroke-width:1.33334;stroke-linecap:round;stroke-linejoin:round;stroke-dasharray:none;stroke-opacity:0.994;paint-order:stroke fill markers"
       d="M -501.8852,-491.33864 4281.3022,2270.2362 3997.6273,2434.0157 -785.5602,-327.55917 Z"
       sodipodi:nodetypes="ccccc" /><path
       id="path20-9"
       style="display:inline;opacity:0.3;fill:#c3b096;fill-opacity:0;stroke:#1e1d2b;stroke-width:1.33334;stroke-linecap:round;stroke-linejoin:round;stroke-dasharray:none;stroke-opacity:0.994;paint-order:stroke fill markers"
       d="m 4281.3022,2597.7953 v -327.5591 l -283.6749,163.7795 v 327.5592 z"
       sodipodi:nodetypes="ccccc" /><path
       id="path25-4"
       style="display:inline;opacity:0.3;fill:#c3b096;fill-opacity:0;stroke:#1e1d2b;stroke-width:1.33334;stroke-linecap:round;stroke-linejoin:round;stroke-dasharray:none;stroke-opacity:0.994;paint-order:stroke fill markers"
       d="m 4516.97,2733.8585 v -327.559 l -283.6748,163.7793 v 327.559 z"
       sodipodi:nodetypes="ccccc" /><path
       id="path23-9"
       style="display:inline;opacity:0.3;fill:#c3b096;fill-opacity:0;stroke:#1e1d2b;stroke-width:1.33334;stroke-linecap:round;stroke-linejoin:round;stroke-dasharray:none;stroke-opacity:0.994;paint-order:stroke fill markers"
       d="m 4726.4527,2854.8034 v -327.5591 l -283.6748,163.7794 v 327.5591 z"
       sodipodi:nodetypes="ccccc" /><path
       id="path24-0"
       style="display:inline;opacity:0.355832;fill:#c3b096;fill-opacity:0;stroke:#1e1d2b;stroke-width:1.33334;stroke-linecap:round;stroke-linejoin:round;stroke-dasharray:none;stroke-opacity:0.994;paint-order:stroke fill markers"
       d="m 4233.2952,2570.0788 209.4827,120.9449 v 327.5591 l -209.4827,-120.945 z"
       sodipodi:nodetypes="ccccc" /><path
       id="path22-9"
       style="display:inline;opacity:0.355832;fill:#c3b096;fill-opacity:0;stroke:#1e1d2b;stroke-width:1.33334;stroke-linecap:round;stroke-linejoin:round;stroke-dasharray:none;stroke-opacity:0.994;paint-order:stroke fill markers"
       d="m 4516.97,2406.2992 209.4827,120.9451 -283.6748,163.7794 -209.4827,-120.9449 z"
       sodipodi:nodetypes="ccccc" /><path
       id="path28-1"
       style="display:inline;opacity:0.3;fill:#c3b096;fill-opacity:0;stroke:#1e1d2b;stroke-width:1.33334;stroke-linecap:round;stroke-linejoin:round;stroke-dasharray:none;stroke-opacity:0.994;paint-order:stroke fill markers"
       d="m 4833.865,2916.8175 v -327.5589 l -283.6748,163.7793 v 327.559 z"
       sodipodi:nodetypes="ccccc" /><path
       id="path26-7"
       style="display:inline;opacity:0.355832;fill:#c3b096;fill-opacity:0;stroke:#1e1d2b;stroke-width:1.33334;stroke-linecap:round;stroke-linejoin:round;stroke-dasharray:none;stroke-opacity:0.994;paint-order:stroke fill markers"
       d="m 4907.1185,2959.1105 v -327.5591 l -283.6747,163.7794 v 327.5591 z"
       sodipodi:nodetypes="ccccc" /><path
       id="path27-7"
       style="display:inline;opacity:0.355832;fill:#c3b096;fill-opacity:0;stroke:#1e1d2b;stroke-width:1.33334;stroke-linecap:round;stroke-linejoin:round;stroke-dasharray:none;stroke-opacity:0.994;paint-order:stroke fill markers"
       d="m 4550.1902,2753.0379 73.2536,42.2929 v 327.5591 l -73.2536,-42.293 z"
       sodipodi:nodetypes="ccccc" /><path
       id="path29-1"
       style="display:inline;opacity:0.355832;fill:#c3b096;fill-opacity:0;stroke:#1e1d2b;stroke-width:1.33334;stroke-linecap:round;stroke-linejoin:round;stroke-dasharray:none;stroke-opacity:0.994;paint-order:stroke fill markers"
       d="m 4833.865,2589.2586 73.2535,42.2928 -283.6747,163.7794 -73.2536,-42.2929 z"
       sodipodi:nodetypes="ccccc" /><path
       id="path1-1"
       style="display:inline;opacity:0.3;fill:#c3b096;fill-opacity:0;stroke:#1e1d2b;stroke-width:1.33334;stroke-linecap:round;stroke-linejoin:round;stroke-dasharray:none;stroke-opacity:0.994;paint-order:stroke fill markers"
       d="m 1041.4758,2213.8955 v -251.9688 l -218.211,125.9842 v 251.9687 z"
       sodipodi:nodetypes="ccccc" /><path
       id="path3-5"
       style="display:inline;opacity:0.3;fill:#c3b096;fill-opacity:0;stroke:#1e1d2b;stroke-width:1.33334;stroke-linecap:round;stroke-linejoin:round;stroke-dasharray:none;stroke-opacity:0.994;paint-order:stroke fill markers"
       d="m -1789.3322,-125.98434 v -251.96854 l -218.211,125.98427 V -8.2886962e-5 Z"
       sodipodi:nodetypes="ccccc" /><path
       id="path2-9"
       style="display:inline;opacity:0.355832;fill:#c3b096;fill-opacity:0;stroke:#1e1d2b;stroke-width:1.33334;stroke-linecap:round;stroke-linejoin:round;stroke-dasharray:none;stroke-opacity:0.994;paint-order:stroke fill markers"
       d="m -2007.5432,-251.96861 3513.2,2028.34631 v 251.9685 L -2007.5432,-8.2886962e-5 Z"
       sodipodi:nodetypes="ccccc" /><path
       id="path7-7"
       style="display:inline;opacity:0.355832;fill:#c3b096;fill-opacity:0;stroke:#1e1d2b;stroke-width:1.33334;stroke-linecap:round;stroke-linejoin:round;stroke-dasharray:none;stroke-opacity:0.994;paint-order:stroke fill markers"
       d="m -1789.3322,-377.95288 3513.1997,2028.34648 -218.2107,125.9841 -3513.2,-2028.34631 z"
       sodipodi:nodetypes="ccccc" /><path
       id="path9-7"
       style="display:inline;opacity:0.355832;fill:#c3b096;fill-opacity:0;stroke:#1e1d2b;stroke-width:1.33334;stroke-linecap:round;stroke-linejoin:round;stroke-dasharray:none;stroke-opacity:0.994;paint-order:stroke fill markers"
       d="m 2574.8915,2393.7008 v -251.9687 l -218.212,125.9841 v 251.9687 z"
       sodipodi:nodetypes="ccccc" /><path
       id="path11-6"
       style="display:inline;opacity:0.3;fill:#c3b096;fill-opacity:0;stroke:#1e1d2b;stroke-width:1.33334;stroke-linecap:round;stroke-linejoin:round;stroke-dasharray:none;stroke-opacity:0.994;paint-order:stroke fill markers"
       d="M 1942.078,2028.3465 V 1776.378 l -218.2105,125.9842 v 251.9685 z"
       sodipodi:nodetypes="ccccc" /><path
       id="path10-7"
       style="display:inline;opacity:0.355832;fill:#c3b096;fill-opacity:0;stroke:#1e1d2b;stroke-width:1.33334;stroke-linecap:round;stroke-linejoin:round;stroke-dasharray:none;stroke-opacity:0.994;paint-order:stroke fill markers"
       d="m 1723.8675,1902.3622 632.812,365.354 v 251.9687 l -632.812,-365.3541 z"
       sodipodi:nodetypes="ccccc" /><path
       id="path12-3"
       style="display:inline;opacity:0.355832;fill:#c3b096;fill-opacity:0;stroke:#1e1d2b;stroke-width:1.33334;stroke-linecap:round;stroke-linejoin:round;stroke-dasharray:none;stroke-opacity:0.994;paint-order:stroke fill markers"
       d="m 1942.078,1776.378 632.8135,365.3542 -218.212,125.984 -632.812,-365.354 z"
       sodipodi:nodetypes="ccccc" /><path
       id="path13-6"
       style="display:inline;opacity:0.355832;fill:#c3b096;fill-opacity:0;stroke:#1e1d2b;stroke-width:1.33334;stroke-linecap:round;stroke-linejoin:round;stroke-dasharray:none;stroke-opacity:0.994;paint-order:stroke fill markers"
       d="m 3665.9461,3023.6222 v -251.9686 l -218.2106,125.9841 v 251.9687 z"
       sodipodi:nodetypes="ccccc" /><path
       id="path199-5"
       style="display:inline;opacity:0.3;fill:#c3b096;fill-opacity:0;stroke:#1e1d2b;stroke-width:1.33334;stroke-linecap:round;stroke-linejoin:round;stroke-dasharray:none;stroke-opacity:0.994;paint-order:stroke fill markers"
       d="m 3273.1661,2796.8504 v -251.9687 l -218.2107,125.9842 v 251.9684 z"
       sodipodi:nodetypes="ccccc" /><path
       id="path15-6"
       style="display:inline;opacity:0.3;fill:#c3b096;fill-opacity:0;stroke:#1e1d2b;stroke-width:1.33334;stroke-linecap:round;stroke-linejoin:round;stroke-dasharray:none;stroke-opacity:0.994;paint-order:stroke fill markers"
       d="m 2819.2874,2534.8032 v -251.9685 l -218.2106,125.9842 v 251.9685 z"
       sodipodi:nodetypes="ccccc" /><path
       id="path14-3"
       style="display:inline;opacity:0.355832;fill:#c3b096;fill-opacity:0;stroke:#1e1d2b;stroke-width:1.33334;stroke-linecap:round;stroke-linejoin:round;stroke-dasharray:none;stroke-opacity:0.994;paint-order:stroke fill markers"
       d="m 2601.0768,2408.8189 846.6587,488.8188 v 251.9687 l -846.6587,-488.8189 z"
       sodipodi:nodetypes="ccccc" /><path
       id="path16-9"
       style="display:inline;opacity:0.355832;fill:#c3b096;fill-opacity:0;stroke:#1e1d2b;stroke-width:1.33334;stroke-linecap:round;stroke-linejoin:round;stroke-dasharray:none;stroke-opacity:0.994;paint-order:stroke fill markers"
       d="m 2819.2874,2282.8347 846.6587,488.8191 -218.2106,125.9839 -846.6587,-488.8188 z"
       sodipodi:nodetypes="ccccc" /><path
       id="path17-4"
       style="display:inline;opacity:0.355832;fill:#c3b096;fill-opacity:0;stroke:#1e1d2b;stroke-width:1.33334;stroke-linecap:round;stroke-linejoin:round;stroke-dasharray:none;stroke-opacity:0.994;paint-order:stroke fill markers"
       d="m 4647.897,3590.5515 v -251.9688 l -218.2107,125.9842 v 251.9686 z"
       sodipodi:nodetypes="ccccc" /><path
       id="path30-8"
       style="display:inline;opacity:0.3;fill:#c3b096;fill-opacity:0;stroke:#1e1d2b;stroke-width:1.33334;stroke-linecap:round;stroke-linejoin:round;stroke-dasharray:none;stroke-opacity:0.994;paint-order:stroke fill markers"
       d="m 3905.9792,3162.2049 v -251.9685 l -218.2118,125.9843 v 251.9683 z"
       sodipodi:nodetypes="ccccc" /><path
       id="path18-1"
       style="display:inline;opacity:0.355832;fill:#c3b096;fill-opacity:0;stroke:#1e1d2b;stroke-width:1.33334;stroke-linecap:round;stroke-linejoin:round;stroke-dasharray:none;stroke-opacity:0.994;paint-order:stroke fill markers"
       d="m 3687.7674,3036.2207 741.9189,428.3462 v 251.9686 l -741.9179,-428.3464 z"
       sodipodi:nodetypes="ccccc" /><path
       id="path31-2"
       style="display:inline;opacity:0.355832;fill:#c3b096;fill-opacity:0;stroke:#1e1d2b;stroke-width:1.33334;stroke-linecap:round;stroke-linejoin:round;stroke-dasharray:none;stroke-opacity:0.994;paint-order:stroke fill markers"
       d="m 3905.9792,2910.2364 741.9178,428.3464 -218.2107,125.9841 -741.9189,-428.3462 z"
       sodipodi:nodetypes="ccccc" /><path
       id="path32-9"
       style="display:inline;opacity:0.3;fill:#c3b096;fill-opacity:0;stroke:#1e1d2b;stroke-width:1.33334;stroke-linecap:round;stroke-linejoin:round;stroke-dasharray:none;stroke-opacity:0.994;paint-order:stroke fill markers"
       d="m 1112.8758,2255.1183 v -251.9688 l -218.211,125.9842 v 251.9687 z"
       sodipodi:nodetypes="ccccc" /><path
       id="path34-3"
       style="display:inline;opacity:0.3;fill:#c3b096;fill-opacity:0;stroke:#1e1d2b;stroke-width:1.33334;stroke-linecap:round;stroke-linejoin:round;stroke-dasharray:none;stroke-opacity:0.994;paint-order:stroke fill markers"
       d="m -3011.3132,-125.98424 v -251.96853 l -218.212,125.98427 V -1.0342633e-4 Z"
       sodipodi:nodetypes="ccccc" /><path
       id="path33-9"
       style="display:inline;opacity:0.355832;fill:#c3b096;fill-opacity:0;stroke:#1e1d2b;stroke-width:1.33334;stroke-linecap:round;stroke-linejoin:round;stroke-dasharray:none;stroke-opacity:0.994;paint-order:stroke fill markers"
       d="M -3229.5252,-251.96863 823.2648,2087.911 v 251.9686 L -3229.5252,-1.0342633e-4 Z"
       sodipodi:nodetypes="ccccc" /><path
       id="path35-0"
       style="display:inline;opacity:0.355832;fill:#c3b096;fill-opacity:0;stroke:#1e1d2b;stroke-width:1.33334;stroke-linecap:round;stroke-linejoin:round;stroke-dasharray:none;stroke-opacity:0.994;paint-order:stroke fill markers"
       d="M -3011.3132,-377.95277 1041.4758,1961.9267 823.2648,2087.911 -3229.5242,-251.9685 Z"
       sodipodi:nodetypes="ccccc" /><path
       id="path36-8"
       style="display:inline;opacity:0.3;fill:#c3b096;fill-opacity:0;stroke:#1e1d2b;stroke-width:1.33334;stroke-linecap:round;stroke-linejoin:round;stroke-dasharray:none;stroke-opacity:0.994;paint-order:stroke fill markers"
       d="m 1331.0871,2381.1025 v -251.9687 l -218.2103,125.9842 v 251.9687 z"
       sodipodi:nodetypes="ccccc" /><path
       id="path37-8"
       style="display:inline;opacity:0.355832;fill:#c3b096;fill-opacity:0;stroke:#1e1d2b;stroke-width:1.33334;stroke-linecap:round;stroke-linejoin:round;stroke-dasharray:none;stroke-opacity:0.994;paint-order:stroke fill markers"
       d="m 894.6648,2129.1337 218.212,125.9843 v 251.9687 l -218.212,-125.9845 z"
       sodipodi:nodetypes="ccccc" /><path
       id="path38-5"
       style="display:inline;opacity:0.355832;fill:#c3b096;fill-opacity:0;stroke:#1e1d2b;stroke-width:1.33334;stroke-linecap:round;stroke-linejoin:round;stroke-dasharray:none;stroke-opacity:0.994;paint-order:stroke fill markers"
       d="m 1723.8675,1902.362 v -251.9684 l -218.2107,125.9841 v 251.9686 z"
       sodipodi:nodetypes="ccccc" /><path
       id="path39-0"
       style="display:inline;opacity:0.355832;fill:#c3b096;fill-opacity:0;stroke:#1e1d2b;stroke-width:1.33334;stroke-linecap:round;stroke-linejoin:round;stroke-dasharray:none;stroke-opacity:0.994;paint-order:stroke fill markers"
       d="m 1112.8758,2003.1494 218.2113,125.9847 -218.2103,125.984 -218.212,-125.9844 z"
       sodipodi:nodetypes="ccccc" /><path
       id="path41-6"
       style="display:inline;opacity:0.3;fill:#c3b096;fill-opacity:0;stroke:#1e1d2b;stroke-width:1.33334;stroke-linecap:round;stroke-linejoin:round;stroke-dasharray:none;stroke-opacity:0.994;paint-order:stroke fill markers"
       d="m 1549.2981,2507.0872 v -251.9687 l -218.211,125.9841 v 251.9687 z"
       sodipodi:nodetypes="ccccc" /><path
       id="path42-3"
       style="display:inline;opacity:0.355832;fill:#c3b096;fill-opacity:0;stroke:#1e1d2b;stroke-width:1.33334;stroke-linecap:round;stroke-linejoin:round;stroke-dasharray:none;stroke-opacity:0.994;paint-order:stroke fill markers"
       d="m 1112.8768,2255.1184 218.2103,125.9842 v 251.9687 l -218.2103,-125.9844 z"
       sodipodi:nodetypes="ccccc" /><path
       id="path43-8"
       style="display:inline;opacity:0.355832;fill:#c3b096;fill-opacity:0;stroke:#1e1d2b;stroke-width:1.33334;stroke-linecap:round;stroke-linejoin:round;stroke-dasharray:none;stroke-opacity:0.994;paint-order:stroke fill markers"
       d="m 1331.0871,2129.1341 218.211,125.9847 -218.211,125.984 -218.2103,-125.9844 z"
       sodipodi:nodetypes="ccccc" /><path
       id="path44-5"
       style="display:inline;opacity:0.3;fill:#c3b096;fill-opacity:0;stroke:#1e1d2b;stroke-width:1.33334;stroke-linecap:round;stroke-linejoin:round;stroke-dasharray:none;stroke-opacity:0.994;paint-order:stroke fill markers"
       d="m 1723.8675,2607.8742 v -251.9686 l -218.2107,125.9841 v 251.9687 z"
       sodipodi:nodetypes="ccccc" /><path
       id="path45-6"
       style="display:inline;opacity:0.3;fill:#c3b096;fill-opacity:0;stroke:#1e1d2b;stroke-width:1.33334;stroke-linecap:round;stroke-linejoin:round;stroke-dasharray:none;stroke-opacity:0.994;paint-order:stroke fill markers"
       d="m 1963.8994,2746.4568 v -251.9685 l -218.2107,125.984 v 251.9688 z"
       sodipodi:nodetypes="ccccc" /><path
       id="path46-1"
       style="display:inline;opacity:0.355832;fill:#c3b096;fill-opacity:0;stroke:#1e1d2b;stroke-width:1.33334;stroke-linecap:round;stroke-linejoin:round;stroke-dasharray:none;stroke-opacity:0.994;paint-order:stroke fill markers"
       d="m 1505.6568,2481.89 240.0319,138.5823 v 251.9688 l -240.0319,-138.5826 z"
       sodipodi:nodetypes="ccccc" /><path
       id="path47-1"
       style="display:inline;opacity:0.355832;fill:#c3b096;fill-opacity:0;stroke:#1e1d2b;stroke-width:1.33334;stroke-linecap:round;stroke-linejoin:round;stroke-dasharray:none;stroke-opacity:0.994;paint-order:stroke fill markers"
       d="m 1723.8675,2355.9058 240.0319,138.5827 -218.2107,125.984 -240.0319,-138.5825 z"
       sodipodi:nodetypes="ccccc" /><path
       id="path48-5"
       style="display:inline;opacity:0.3;fill:#c3b096;fill-opacity:0;stroke:#1e1d2b;stroke-width:1.33334;stroke-linecap:round;stroke-linejoin:round;stroke-dasharray:none;stroke-opacity:0.994;paint-order:stroke fill markers"
       d="m 2094.8261,2822.0474 v -251.9686 l -218.2107,125.9842 v 251.9685 z"
       sodipodi:nodetypes="ccccc" /><path
       id="path49-9"
       style="display:inline;opacity:0.355832;fill:#c3b096;fill-opacity:0;stroke:#1e1d2b;stroke-width:1.33334;stroke-linecap:round;stroke-linejoin:round;stroke-dasharray:none;stroke-opacity:0.994;paint-order:stroke fill markers"
       d="m 2208.2955,2887.5592 v -251.9684 l -218.2108,125.9842 v 251.9685 z"
       sodipodi:nodetypes="ccccc" /><path
       id="path50-8"
       style="display:inline;opacity:0.355832;fill:#c3b096;fill-opacity:0;stroke:#1e1d2b;stroke-width:1.33334;stroke-linecap:round;stroke-linejoin:round;stroke-dasharray:none;stroke-opacity:0.994;paint-order:stroke fill markers"
       d="m 1876.6154,2696.0632 113.4693,65.5118 v 251.9685 l -113.4693,-65.5118 z"
       sodipodi:nodetypes="ccccc" /><path
       id="path51-4"
       style="display:inline;opacity:0.355832;fill:#c3b096;fill-opacity:0;stroke:#1e1d2b;stroke-width:1.33334;stroke-linecap:round;stroke-linejoin:round;stroke-dasharray:none;stroke-opacity:0.994;paint-order:stroke fill markers"
       d="m 2094.8261,2570.0789 113.4694,65.5122 -218.2108,125.984 -113.4693,-65.5119 z"
       sodipodi:nodetypes="ccccc" /><path
       style="opacity:0.3;fill:#f87875;stroke:#1e1d2b;stroke-width:1.33334;stroke-linecap:round;stroke-linejoin:round;stroke-opacity:0.994;paint-order:stroke fill markers"
       d="m 2094.8261,2822.0474 113.4694,65.5118"
       id="path8" /><path
       style="opacity:0.3;fill:#f87875;stroke:#1e1d2b;stroke-width:1.33334;stroke-linecap:round;stroke-linejoin:round;stroke-opacity:0.994;paint-order:stroke fill markers"
       d="m 1745.6887,2620.4725 130.9267,75.5907"
       id="path21" /><path
       style="opacity:0.3;fill:#f87875;stroke:#1e1d2b;stroke-width:1.33334;stroke-linecap:round;stroke-linejoin:round;stroke-opacity:0.994;paint-order:stroke fill markers"
       d="M 1331.0871,2381.1025 1505.6568,2481.89"
       id="path53" /><path
       style="opacity:0.3;fill:#f87875;stroke:#1e1d2b;stroke-width:1.33334;stroke-linecap:round;stroke-linejoin:round;stroke-opacity:0.994;paint-order:stroke fill markers"
       d="m 823.2648,2087.911 71.4,41.2227"
       id="path56" /><path
       style="opacity:0.3;fill:#f87875;stroke:#1e1d2b;stroke-width:1.33334;stroke-linecap:round;stroke-linejoin:round;stroke-opacity:0.994;paint-order:stroke fill markers"
       d="m 1505.6568,1776.3777 218.2107,125.9845"
       id="path57" /><path
       style="opacity:0.3;fill:#f87875;stroke:#1e1d2b;stroke-width:1.33334;stroke-linecap:round;stroke-linejoin:round;stroke-opacity:0.994;paint-order:stroke fill markers"
       d="m 2356.6795,2267.7162 218.212,125.9846"
       id="path58" /><path
       style="opacity:0.3;fill:#f87875;stroke:#1e1d2b;stroke-width:1.33334;stroke-linecap:round;stroke-linejoin:round;stroke-opacity:0.994;paint-order:stroke fill markers"
       d="m 3447.7355,2897.6377 218.2106,125.9845"
       id="path59" /><path
       style="opacity:0.3;fill:#f87875;stroke:#1e1d2b;stroke-width:1.33334;stroke-linecap:round;stroke-linejoin:round;stroke-opacity:0.994;paint-order:stroke fill markers"
       d="m 4429.6863,3464.5669 218.2107,125.9846"
       id="path60" /><path
       style="opacity:0.3;fill:#f87875;stroke:#1e1d2b;stroke-width:1.33334;stroke-linecap:round;stroke-linejoin:round;stroke-opacity:0.994;paint-order:stroke fill markers"
       d="m 4833.865,2916.8175 73.2535,42.293"
       id="path61" /><path
       style="opacity:0.3;fill:#f87875;stroke:#1e1d2b;stroke-width:1.33334;stroke-linecap:round;stroke-linejoin:round;stroke-opacity:0.994;paint-order:stroke fill markers"
       d="m 4516.97,2733.8585 209.4827,120.9449"
       id="path62" /><path
       style="opacity:0.3;fill:#f87875;stroke:#1e1d2b;stroke-width:1.33334;stroke-linecap:round;stroke-linejoin:round;stroke-opacity:0.994;paint-order:stroke fill markers"
       d="m 3997.6273,2434.0157 235.6679,136.0631"
       id="path63" /><path
       id="path110-6"
       style="display:inline;opacity:0.278429;mix-blend-mode:hard-light;fill:#55c6d2;fill-opacity:1;stroke-width:200;stroke-linecap:round;stroke-linejoin:round;paint-order:stroke fill markers;filter:url(#filter217)"
       d="m 2962.2161,1804.7245 v -245.6693 l -212.7559,122.8346 v 245.6693 z"
       sodipodi:nodetypes="ccccc"
       transform="matrix(1.3333334,0,0,1.3333334,16.208797,3.2202519)" /><path
       id="path111-7"
       style="display:inline;opacity:0.443228;mix-blend-mode:hard-light;fill:#00bfd3;fill-opacity:1;stroke-width:200;stroke-linecap:round;stroke-linejoin:round;paint-order:stroke fill markers;filter:url(#filter217)"
       d="M -601.32681,-248.08447 2998.2209,1825.5118 v 245.6693 L -601.32681,-2.4152695 Z"
       sodipodi:nodetypes="ccccc"
       transform="matrix(1.3333334,0,0,1.3333334,16.208797,3.2202519)" /><path
       id="path112-5"
       style="display:inline;opacity:0.246054;mix-blend-mode:hard-light;fill:#28eaff;fill-opacity:1;stroke-width:200;stroke-linecap:round;stroke-linejoin:round;paint-order:stroke fill markers;filter:url(#filter217)"
       d="m -388.57091,-125.24977 v -245.6693 l -212.7559,122.8346 v 245.6693 z"
       sodipodi:nodetypes="ccccc"
       transform="matrix(1.3333334,0,0,1.3333334,16.208797,3.2202519)" /><path
       id="path113-3"
       style="display:inline;opacity:0.537433;mix-blend-mode:hard-light;fill:#04e6ff;fill-opacity:1;stroke-width:200;stroke-linecap:round;stroke-linejoin:round;paint-order:stroke fill markers;filter:url(#filter217)"
       d="M -388.57101,-370.91917 3210.9768,1702.6772 2998.2209,1825.5118 -601.32681,-248.08457 Z"
       sodipodi:nodetypes="ccccc"
       transform="matrix(1.3333334,0,0,1.3333334,16.208797,3.2202519)" /><path
       id="path114-5"
       style="display:inline;opacity:0.64751;mix-blend-mode:hard-light;fill:#00c9e1;fill-opacity:1;stroke-width:200;stroke-linecap:round;stroke-linejoin:round;paint-order:stroke fill markers;filter:url(#filter217)"
       d="m 3210.9768,1948.3465 v -245.6693 l -212.7559,122.8346 v 245.6693 z"
       sodipodi:nodetypes="ccccc"
       transform="matrix(1.3333334,0,0,1.3333334,16.208797,3.2202519)" /><path
       id="path115-6"
       style="display:inline;opacity:0.64751;mix-blend-mode:hard-light;fill:#75e400;fill-opacity:1;stroke-width:200;stroke-linecap:round;stroke-linejoin:round;paint-order:stroke fill markers;filter:url(#filter217)"
       d="m 3544.8399,2141.1026 v -245.6693 l -212.7559,122.8345 v 245.6693 z"
       sodipodi:nodetypes="ccccc"
       transform="matrix(1.3333334,0,0,1.3333334,16.208797,3.2202519)" /><path
       id="path116-2"
       style="display:inline;opacity:0.443228;mix-blend-mode:hard-light;fill:#afff5b;fill-opacity:1;stroke-width:200;stroke-linecap:round;stroke-linejoin:round;paint-order:stroke fill markers;filter:url(#filter217)"
       d="m 3174.972,1927.5591 157.112,90.7087 v 245.6693 l -157.112,-90.7087 z"
       sodipodi:nodetypes="ccccc"
       transform="matrix(1.3333334,0,0,1.3333334,16.208797,3.2202519)" /><path
       id="path117-9"
       style="display:inline;opacity:0.246376;mix-blend-mode:hard-light;fill:#62bf00;fill-opacity:1;stroke-width:200;stroke-linecap:round;stroke-linejoin:round;paint-order:stroke fill markers;filter:url(#filter217)"
       d="m 3387.7279,2050.3939 v -245.6693 l -212.7559,122.8345 v 245.6693 z"
       sodipodi:nodetypes="ccccc"
       transform="matrix(1.3333334,0,0,1.3333334,16.208797,3.2202519)" /><path
       id="path118-1"
       style="display:inline;opacity:0.537433;mix-blend-mode:hard-light;fill:#77e800;fill-opacity:1;stroke-width:200;stroke-linecap:round;stroke-linejoin:round;paint-order:stroke fill markers;filter:url(#filter217)"
       d="m 3387.7279,1804.7244 157.112,90.7089 -212.7559,122.8345 -157.112,-90.7087 z"
       sodipodi:nodetypes="ccccc"
       transform="matrix(1.3333334,0,0,1.3333334,16.208797,3.2202519)" /><path
       id="path119-2"
       style="display:inline;opacity:0.64751;mix-blend-mode:hard-light;fill:#fffe44;fill-opacity:1;stroke-width:200;stroke-linecap:round;stroke-linejoin:round;paint-order:stroke fill markers;filter:url(#filter217)"
       d="m 3680.339,2219.3329 v -245.6693 l -212.756,122.8345 v 245.6693 z"
       sodipodi:nodetypes="ccccc"
       transform="matrix(1.3333334,0,0,1.3333334,16.208797,3.2202519)" /><path
       id="path120-7"
       style="display:inline;opacity:0.443228;mix-blend-mode:hard-light;fill:#fffe1c;fill-opacity:1;stroke-width:200;stroke-linecap:round;stroke-linejoin:round;paint-order:stroke fill markers;filter:url(#filter217)"
       d="m 3412.6428,2064.7784 54.9402,31.7197 v 245.6693 l -54.9402,-31.7197 z"
       sodipodi:nodetypes="ccccc"
       transform="matrix(1.3333334,0,0,1.3333334,16.208797,3.2202519)" /><path
       id="path121-0"
       style="display:inline;opacity:0.246376;mix-blend-mode:hard-light;fill:#eeec00;fill-opacity:1;stroke-width:200;stroke-linecap:round;stroke-linejoin:round;paint-order:stroke fill markers;filter:url(#filter217)"
       d="m 3625.3988,2187.6132 v -245.6693 l -212.756,122.8345 v 245.6693 z"
       sodipodi:nodetypes="ccccc"
       transform="matrix(1.3333334,0,0,1.3333334,16.208797,3.2202519)" /><path
       id="path122-9"
       style="display:inline;opacity:0.537433;mix-blend-mode:hard-light;fill:#fffe00;fill-opacity:1;stroke-width:200;stroke-linecap:round;stroke-linejoin:round;paint-order:stroke fill markers;filter:url(#filter217)"
       d="m 3625.3988,1941.9439 54.9402,31.7197 -212.756,122.8345 -54.9402,-31.7197 z"
       sodipodi:nodetypes="ccccc"
       transform="matrix(1.3333334,0,0,1.3333334,16.208797,3.2202519)" /><path
       id="path123-3"
       style="display:inline;opacity:0.64751;mix-blend-mode:hard-light;fill:#ff8a45;fill-opacity:1;stroke-width:153.846;stroke-linecap:round;stroke-linejoin:round;paint-order:stroke fill markers;filter:url(#filter217)"
       d="m 781.1075,1660.4216 v -188.9765 l -163.6583,94.4881 v 188.9765 z"
       sodipodi:nodetypes="ccccc"
       transform="matrix(1.3333334,0,0,1.3333334,16.208797,3.2202519)" /><path
       id="path124-6"
       style="display:inline;opacity:0.443228;mix-blend-mode:hard-light;fill:#ff3fca;fill-opacity:1;stroke-width:145.335;stroke-linecap:round;stroke-linejoin:round;paint-order:stroke fill markers;filter:url(#filter217)"
       d="m -1517.8135,-191.39165 2647.056,1523.67495 v 188.9764 L -1517.8135,-2.4152495 Z"
       sodipodi:nodetypes="ccccc"
       transform="matrix(1.3333334,0,0,1.3333334,16.208797,3.2202519)" /><path
       id="path125-0"
       style="display:inline;opacity:0.246054;mix-blend-mode:hard-light;fill:#ff8cdf;fill-opacity:1;stroke-width:153.846;stroke-linecap:round;stroke-linejoin:round;paint-order:stroke fill markers;filter:url(#filter217)"
       d="m -1354.1552,-96.90345 v -188.9764 l -163.6583,94.4882 V -2.4153495 Z"
       sodipodi:nodetypes="ccccc"
       transform="matrix(1.3333334,0,0,1.3333334,16.208797,3.2202519)" /><path
       id="path126-6"
       style="display:inline;opacity:0.537433;mix-blend-mode:hard-light;fill:#ff45cb;fill-opacity:1;stroke-width:145.335;stroke-linecap:round;stroke-linejoin:round;paint-order:stroke fill markers;filter:url(#filter217)"
       d="m -1354.1552,-285.87985 2647.056,1523.67515 -163.6583,94.488 -2647.056,-1523.67495 z"
       sodipodi:nodetypes="ccccc"
       transform="matrix(1.3333334,0,0,1.3333334,16.208797,3.2202519)" /><path
       id="path127-2"
       style="display:inline;opacity:0.64751;mix-blend-mode:hard-light;fill:#e72cff;fill-opacity:1;stroke-width:153.846;stroke-linecap:round;stroke-linejoin:round;paint-order:stroke fill markers;filter:url(#filter217)"
       d="m 1931.1685,1795.2756 v -188.9765 l -163.6583,94.4881 v 188.9765 z"
       sodipodi:nodetypes="ccccc"
       transform="matrix(1.3333334,0,0,1.3333334,16.208797,3.2202519)" /><path
       id="path128-6"
       style="display:inline;opacity:0.443228;mix-blend-mode:hard-light;fill:#d500f1;fill-opacity:1;stroke-width:145.335;stroke-linecap:round;stroke-linejoin:round;paint-order:stroke fill markers;filter:url(#filter217)"
       d="m 1292.901,1426.7717 474.6092,274.0155 -10e-5,188.9765 -474.6091,-274.0156 z"
       sodipodi:nodetypes="ccccc"
       transform="matrix(1.3333334,0,0,1.3333334,16.208797,3.2202519)" /><path
       id="path129-1"
       style="display:inline;opacity:0.246054;mix-blend-mode:hard-light;fill:#ec58ff;fill-opacity:1;stroke-width:153.846;stroke-linecap:round;stroke-linejoin:round;paint-order:stroke fill markers;filter:url(#filter217)"
       d="m 1456.5593,1521.2599 v -188.9764 l -163.6583,94.4882 v 188.9763 z"
       sodipodi:nodetypes="ccccc"
       transform="matrix(1.3333334,0,0,1.3333334,16.208797,3.2202519)" /><path
       id="path130-8"
       style="display:inline;opacity:0.537433;mix-blend-mode:hard-light;fill:#e30bff;fill-opacity:1;stroke-width:145.335;stroke-linecap:round;stroke-linejoin:round;paint-order:stroke fill markers;filter:url(#filter217)"
       d="m 1456.5593,1332.2835 474.6092,274.0157 -163.6583,94.488 -474.6092,-274.0155 z"
       sodipodi:nodetypes="ccccc"
       transform="matrix(1.3333334,0,0,1.3333334,16.208797,3.2202519)" /><path
       id="path131-7"
       style="display:inline;opacity:0.64751;mix-blend-mode:hard-light;fill:#ff403c;fill-opacity:1;stroke-width:153.846;stroke-linecap:round;stroke-linejoin:round;paint-order:stroke fill markers;filter:url(#filter217)"
       d="m 2749.4602,2267.7167 v -188.9765 l -163.6583,94.4881 v 188.9765 z"
       sodipodi:nodetypes="ccccc"
       transform="matrix(1.3333334,0,0,1.3333334,16.208797,3.2202519)" /><path
       id="path132-9"
       style="display:inline;opacity:0.443228;mix-blend-mode:hard-light;fill:#ff2a26;fill-opacity:1;stroke-width:145.335;stroke-linecap:round;stroke-linejoin:round;paint-order:stroke fill markers;filter:url(#filter217)"
       d="m 1950.8076,1806.6142 634.9943,366.6141 -10e-5,188.9765 -634.9942,-366.6142 z"
       sodipodi:nodetypes="ccccc"
       transform="matrix(1.3333334,0,0,1.3333334,16.208797,3.2202519)" /><path
       id="path133-2"
       style="display:inline;opacity:0.246054;mix-blend-mode:hard-light;fill:#ff716e;fill-opacity:1;stroke-width:153.846;stroke-linecap:round;stroke-linejoin:round;paint-order:stroke fill markers;filter:url(#filter217)"
       d="M 2114.4659,1901.1024 V 1712.126 l -163.6583,94.4882 v 188.9763 z"
       sodipodi:nodetypes="ccccc"
       transform="matrix(1.3333334,0,0,1.3333334,16.208797,3.2202519)" /><path
       id="path134-0"
       style="display:inline;opacity:0.537433;mix-blend-mode:hard-light;fill:#ff4440;fill-opacity:1;stroke-width:145.335;stroke-linecap:round;stroke-linejoin:round;paint-order:stroke fill markers;filter:url(#filter217)"
       d="m 2114.4659,1712.126 634.9943,366.6143 -163.6583,94.488 -634.9943,-366.6141 z"
       sodipodi:nodetypes="ccccc"
       transform="matrix(1.3333334,0,0,1.3333334,16.208797,3.2202519)" /><path
       id="path135-2"
       style="display:inline;opacity:0.64751;mix-blend-mode:hard-light;fill:#0170eb;fill-opacity:1;stroke-width:153.846;stroke-linecap:round;stroke-linejoin:round;paint-order:stroke fill markers;filter:url(#filter217)"
       d="m 3485.9229,2692.9136 v -188.9765 l -163.6584,94.4881 v 188.9765 z"
       sodipodi:nodetypes="ccccc"
       transform="matrix(1.3333334,0,0,1.3333334,16.208797,3.2202519)" /><path
       id="path136-3"
       style="display:inline;opacity:0.443228;mix-blend-mode:hard-light;fill:#0165d5;fill-opacity:1;stroke-width:145.335;stroke-linecap:round;stroke-linejoin:round;paint-order:stroke fill markers;filter:url(#filter217)"
       d="m 2765.8261,2277.1655 556.4384,321.2597 -1e-4,188.9765 -556.4383,-321.2598 z"
       sodipodi:nodetypes="ccccc"
       transform="matrix(1.3333334,0,0,1.3333334,16.208797,3.2202519)" /><path
       id="path137-7"
       style="display:inline;opacity:0.246054;mix-blend-mode:hard-light;fill:#3b97fe;fill-opacity:1;stroke-width:153.846;stroke-linecap:round;stroke-linejoin:round;paint-order:stroke fill markers;filter:url(#filter217)"
       d="m 2929.4845,2371.6537 v -188.9764 l -163.6584,94.4882 v 188.9763 z"
       sodipodi:nodetypes="ccccc"
       transform="matrix(1.3333334,0,0,1.3333334,16.208797,3.2202519)" /><path
       id="path138-5"
       style="display:inline;opacity:0.537433;mix-blend-mode:hard-light;fill:#0175f7;fill-opacity:1;stroke-width:145.335;stroke-linecap:round;stroke-linejoin:round;paint-order:stroke fill markers;filter:url(#filter217)"
       d="m 2929.4845,2182.6773 556.4384,321.2599 -163.6584,94.488 -556.4384,-321.2597 z"
       sodipodi:nodetypes="ccccc"
       transform="matrix(1.3333334,0,0,1.3333334,16.208797,3.2202519)" /><path
       id="path139-9"
       style="display:inline;opacity:0.278429;mix-blend-mode:hard-light;fill:#90ff6c;fill-opacity:1;stroke-width:153.846;stroke-linecap:round;stroke-linejoin:round;paint-order:stroke fill markers;filter:url(#filter217)"
       d="m 834.6574,1691.3387 v -188.9765 l -163.6583,94.4881 v 188.9765 z"
       sodipodi:nodetypes="ccccc"
       transform="matrix(1.3333334,0,0,1.3333334,16.208797,3.2202519)" /><path
       id="path140-2"
       style="display:inline;opacity:0.443228;mix-blend-mode:hard-light;fill:#dc5200;fill-opacity:1;stroke-width:145.335;stroke-linecap:round;stroke-linejoin:round;paint-order:stroke fill markers;filter:url(#filter217)"
       d="M -2434.3,-191.39157 617.4492,1565.9333 v 188.9764 L -2434.3,-2.4151695 Z"
       sodipodi:nodetypes="ccccc"
       transform="matrix(1.3333334,0,0,1.3333334,16.208797,3.2202519)" /><path
       id="path141-2"
       style="display:inline;opacity:0.246054;mix-blend-mode:hard-light;fill:#ff8a45;fill-opacity:1;stroke-width:153.846;stroke-linecap:round;stroke-linejoin:round;paint-order:stroke fill markers;filter:url(#filter217)"
       d="m -2270.6417,-96.90337 v -188.9764 l -163.6583,94.4882 v 188.9763 z"
       sodipodi:nodetypes="ccccc"
       transform="matrix(1.3333334,0,0,1.3333334,16.208797,3.2202519)" /><path
       id="path142-8"
       style="display:inline;opacity:0.537433;mix-blend-mode:hard-light;fill:#d95100;fill-opacity:1;stroke-width:145.335;stroke-linecap:round;stroke-linejoin:round;paint-order:stroke fill markers;filter:url(#filter217)"
       d="M -2270.6417,-285.87977 781.1075,1471.4451 617.4492,1565.9333 -2434.3,-191.39157 Z"
       sodipodi:nodetypes="ccccc"
       transform="matrix(1.3333334,0,0,1.3333334,16.208797,3.2202519)" /><path
       id="path143-9"
       style="display:inline;opacity:0.278429;mix-blend-mode:hard-light;fill:#90ff6c;fill-opacity:1;stroke-width:153.846;stroke-linecap:round;stroke-linejoin:round;paint-order:stroke fill markers;filter:url(#filter217)"
       d="m 998.3159,1785.8269 v -188.9765 l -163.6583,94.4881 v 188.9765 z"
       sodipodi:nodetypes="ccccc"
       transform="matrix(1.3333334,0,0,1.3333334,16.208797,3.2202519)" /><path
       id="path144-7"
       style="display:inline;opacity:0.443228;mix-blend-mode:hard-light;fill:#279f00;fill-opacity:1;stroke-width:145.335;stroke-linecap:round;stroke-linejoin:round;paint-order:stroke fill markers;filter:url(#filter217)"
       d="m 670.9991,1596.8503 163.6586,94.4882 -10e-5,188.9765 -163.6585,-94.4883 z"
       sodipodi:nodetypes="ccccc"
       transform="matrix(1.3333334,0,0,1.3333334,16.208797,3.2202519)" /><path
       id="path145-3"
       style="display:inline;opacity:0.64751;mix-blend-mode:hard-light;fill:#ff56d0;fill-opacity:1;stroke-width:153.846;stroke-linecap:round;stroke-linejoin:round;paint-order:stroke fill markers;filter:url(#filter217)"
       d="m 1292.9008,1426.7716 v -188.9763 l -163.6583,94.488 v 188.9765 z"
       sodipodi:nodetypes="ccccc"
       transform="matrix(1.3333334,0,0,1.3333334,16.208797,3.2202519)" /><path
       id="path146-6"
       style="display:inline;opacity:0.537433;mix-blend-mode:hard-light;fill:#33d400;fill-opacity:1;stroke-width:145.335;stroke-linecap:round;stroke-linejoin:round;paint-order:stroke fill markers;filter:url(#filter217)"
       d="m 834.6574,1502.3621 163.6585,94.4885 -163.6583,94.488 -163.6585,-94.4883 z"
       sodipodi:nodetypes="ccccc"
       transform="matrix(1.3333334,0,0,1.3333334,16.208797,3.2202519)" /><path
       id="path147-1"
       style="display:inline;opacity:0.278429;mix-blend-mode:hard-light;fill:#90ff6c;fill-opacity:1;stroke-width:153.846;stroke-linecap:round;stroke-linejoin:round;paint-order:stroke fill markers;filter:url(#filter217)"
       d="m 998.3159,1785.827 v -188.9765 l -163.6583,94.4881 v 188.9765 z"
       sodipodi:nodetypes="ccccc"
       transform="matrix(1.3333334,0,0,1.3333334,16.208797,3.2202519)" /><path
       id="path148-2"
       style="display:inline;opacity:0.64751;mix-blend-mode:hard-light;fill:#fff242;fill-opacity:1;stroke-width:153.846;stroke-linecap:round;stroke-linejoin:round;paint-order:stroke fill markers;filter:url(#filter217)"
       d="m 1161.9742,1880.3154 v -188.9765 l -163.6584,94.4881 v 188.9765 z"
       sodipodi:nodetypes="ccccc"
       transform="matrix(1.3333334,0,0,1.3333334,16.208797,3.2202519)" /><path
       id="path149-9"
       style="display:inline;opacity:0.443228;mix-blend-mode:hard-light;fill:#dacb00;fill-opacity:1;stroke-width:145.335;stroke-linecap:round;stroke-linejoin:round;paint-order:stroke fill markers;filter:url(#filter217)"
       d="m 834.6576,1691.3388 163.6583,94.4882 -1e-4,188.9765 -163.6582,-94.4883 z"
       sodipodi:nodetypes="ccccc"
       transform="matrix(1.3333334,0,0,1.3333334,16.208797,3.2202519)" /><path
       id="path150-3"
       style="display:inline;opacity:0.537433;mix-blend-mode:hard-light;fill:#e3d400;fill-opacity:1;stroke-width:145.335;stroke-linecap:round;stroke-linejoin:round;paint-order:stroke fill markers;filter:url(#filter217)"
       d="m 998.3159,1596.8506 163.6583,94.4885 -163.6584,94.488 -163.6582,-94.4883 z"
       sodipodi:nodetypes="ccccc"
       transform="matrix(1.3333334,0,0,1.3333334,16.208797,3.2202519)" /><path
       id="path151-1"
       style="display:inline;opacity:0.278429;mix-blend-mode:hard-light;fill:#ff635f;fill-opacity:1;stroke-width:153.846;stroke-linecap:round;stroke-linejoin:round;paint-order:stroke fill markers;filter:url(#filter217)"
       d="m 1292.901,1955.9057 v -188.9765 l -163.6583,94.4881 v 188.9765 z"
       sodipodi:nodetypes="ccccc"
       transform="matrix(1.3333334,0,0,1.3333334,16.208797,3.2202519)" /><path
       id="path152-9"
       style="display:inline;opacity:0.64751;mix-blend-mode:hard-light;fill:#ff635f;fill-opacity:1;stroke-width:153.846;stroke-linecap:round;stroke-linejoin:round;paint-order:stroke fill markers;filter:url(#filter217)"
       d="m 1472.9252,2059.8426 v -188.9764 l -163.6583,94.4881 v 188.9765 z"
       sodipodi:nodetypes="ccccc"
       transform="matrix(1.3333334,0,0,1.3333334,16.208797,3.2202519)" /><path
       id="path153-4"
       style="display:inline;opacity:0.443228;mix-blend-mode:hard-light;fill:#ff1c16;fill-opacity:1;stroke-width:145.335;stroke-linecap:round;stroke-linejoin:round;paint-order:stroke fill markers;filter:url(#filter217)"
       d="m 1129.2427,1861.4175 180.0243,103.9368 -10e-5,188.9765 -180.0242,-103.9369 z"
       sodipodi:nodetypes="ccccc"
       transform="matrix(1.3333334,0,0,1.3333334,16.208797,3.2202519)" /><path
       id="path154-7"
       style="display:inline;opacity:0.537433;mix-blend-mode:hard-light;fill:#ff2924;fill-opacity:1;stroke-width:145.335;stroke-linecap:round;stroke-linejoin:round;paint-order:stroke fill markers;filter:url(#filter217)"
       d="m 1292.901,1766.9293 180.0242,103.9371 -163.6583,94.488 -180.0242,-103.9369 z"
       sodipodi:nodetypes="ccccc"
       transform="matrix(1.3333334,0,0,1.3333334,16.208797,3.2202519)" /><path
       id="path155-8"
       style="display:inline;opacity:0.278429;mix-blend-mode:hard-light;fill:#ffffff;fill-opacity:1;stroke-width:153.846;stroke-linecap:round;stroke-linejoin:round;paint-order:stroke fill markers;filter:url(#filter217)"
       d="m 1571.1201,2116.5356 v -188.9765 l -163.6583,94.4881 v 188.9765 z"
       sodipodi:nodetypes="ccccc"
       transform="matrix(1.3333334,0,0,1.3333334,16.208797,3.2202519)" /><path
       id="path156-4"
       style="display:inline;opacity:0.64751;mix-blend-mode:hard-light;fill:#bfbfbf;fill-opacity:1;stroke-width:153.846;stroke-linecap:round;stroke-linejoin:round;paint-order:stroke fill markers;filter:url(#filter217)"
       d="m 1656.2224,2165.6695 v -188.9764 l -163.6583,94.4881 v 188.9765 z"
       sodipodi:nodetypes="ccccc"
       transform="matrix(1.3333334,0,0,1.3333334,16.208797,3.2202519)" /><path
       id="path157-5"
       style="display:inline;opacity:0.443228;mix-blend-mode:hard-light;fill:#d4d4d4;fill-opacity:1;stroke-width:145.335;stroke-linecap:round;stroke-linejoin:round;paint-order:stroke fill markers;filter:url(#filter217)"
       d="m 1407.4618,2022.0474 85.1024,49.1338 -10e-5,188.9765 -85.1023,-49.1339 z"
       sodipodi:nodetypes="ccccc"
       transform="matrix(1.3333334,0,0,1.3333334,16.208797,3.2202519)" /><path
       id="path158-0"
       style="display:inline;opacity:0.537433;mix-blend-mode:hard-light;fill:#e2e2e2;fill-opacity:1;stroke-width:145.335;stroke-linecap:round;stroke-linejoin:round;paint-order:stroke fill markers;filter:url(#filter217)"
       d="m 1571.1201,1927.5592 85.1023,49.1341 -163.6583,94.488 -85.1023,-49.1339 z"
       sodipodi:nodetypes="ccccc"
       transform="matrix(1.3333334,0,0,1.3333334,16.208797,3.2202519)" /><path
       id="path159-3"
       style="display:inline;opacity:0.278429;mix-blend-mode:hard-light;fill:#ff1510;fill-opacity:1;stroke-width:153.846;stroke-linecap:round;stroke-linejoin:round;paint-order:stroke fill markers;filter:url(#filter217)"
       d="m 2454.8748,2097.6378 v -188.9765 l -163.6583,94.4881 v 188.9764 z"
       sodipodi:nodetypes="ccccc"
       transform="matrix(1.3333334,0,0,1.3333334,16.208797,3.2202519)" /></g></svg>
